{
  "dates": {
    "maximum": "2022-05-01",
    "minimum": "2022-01-01"
  },
  "page": 1,
  "results": [
    {
      "backdrop_path": "/path.jpg",
      "genre_ids": [
        1,
        2,
        3,
        4
      ],
      "id": 1,
      "overview": "Overview",
      "poster_path": "/path.jpg",
      "release_date": "2022-01-01",
      "title": "Title",
      "vote_average": 1.0,
      "vote_count": 1
    }
  ],
  "total_pages": 47,
  "total_results": 940
}